{
	"/": "home.xml",
	"/about": "about.xml",
	"/news": "news.xml",
	"/projects/{category}": "projects.xml",
	"/projects/{name}/about": "project_about.xml",
	"/projects/{name}/contact": "project_contact.xml",
	"/projects/{name}/location": "project_location.xml",
	"/projects/{name}/gallery": "project_gallery.xml",
	"/projects/{name}/videos": "project_videos.xml",
	"/contact": "contact.xml",
	"/accessibility-policy": "accessibility.xml"
}